%YAML 1.1
%TAG !u! tag:unity3d.com,2011:
--- !u!114 &11400000
MonoBehaviour:
  m_ObjectHideFlags: 0
  m_PrefabParentObject: {fileID: 0}
  m_PrefabInternal: {fileID: 0}
  m_GameObject: {fileID: 0}
  m_Enabled: 1
  m_EditorHideFlags: 0
  m_Script: {fileID: 11500000, guid: 95cf3c03104f4a54e84c05bcdae899a1, type: 3}
  m_Name: BlueBall
  m_EditorClassIdentifier: 
  ballName: BlueBall
  ballSprite: {fileID: 21300000, guid: cad3892eb97df5b40aca09f1255ab2b2, type: 3}
  isCouterable: 1
  damage: 2
  speed: 10
  chance: 4
